samples/fulladder/verilog/fulladder.vcd
$date
	Fri Mar  6 14:45:05 2026
$end
$version
	Icarus Verilog
$end
$timescale
	100fs
$end
$scope module top $end
$var wire 1 ! s $end
$var wire 1 " cout $end
$var reg 1 # a $end
$var reg 1 $ b $end
$var reg 1 % cin $end
$var reg 1 & clk $end
$var integer 32 ' i [31:0] $end
$scope module fa $end
$var wire 1 # a $end
$var wire 1 $ b $end
$var wire 1 % cin $end
$var wire 1 & clk $end
$var wire 1 ! s $end
$var wire 1 " cout $end
$var wire 1 ( _SPLIT5_q2 $end
$var wire 1 ) _SPLIT5_q1 $end
$var wire 1 * _SPLIT2_q2 $end
$var wire 1 + _SPLIT2_q1 $end
$var wire 1 , _SPLIT1_q2 $end
$var wire 1 - _SPLIT1_q1 $end
$var wire 1 . _HalfAdder3_s $end
$var wire 1 / _HalfAdder3_c $end
$var wire 1 0 _HalfAdder13_c $end
$var wire 1 1 _DFF8_q $end
$var wire 1 2 _DFF4_q $end
$var wire 1 3 _BUFF9_q $end
$var wire 1 4 _BUFF7_q $end
$var wire 1 5 _BUFF6_q $end
$var wire 1 6 _BUFF12_q $end
$var wire 1 7 _BUFF11_q $end
$var wire 1 8 _BUFF10_q $end
$scope module BUFF10 $end
$var wire 1 3 a $end
$var reg 1 9 errorsignal_a $end
$var reg 1 8 q $end
$var integer 32 : cell_state [31:0] $end
$var real 1 ; ct_state0_a_a $end
$var real 1 < delay_state0_a_q $end
$var integer 32 = outfile [31:0] $end
$upscope $end
$scope module BUFF11 $end
$var wire 1 2 a $end
$var reg 1 > errorsignal_a $end
$var reg 1 7 q $end
$var integer 32 ? cell_state [31:0] $end
$var real 1 @ ct_state0_a_a $end
$var real 1 A delay_state0_a_q $end
$var integer 32 B outfile [31:0] $end
$upscope $end
$scope module BUFF12 $end
$var wire 1 7 a $end
$var reg 1 C errorsignal_a $end
$var reg 1 6 q $end
$var integer 32 D cell_state [31:0] $end
$var real 1 E ct_state0_a_a $end
$var real 1 F delay_state0_a_q $end
$var integer 32 G outfile [31:0] $end
$upscope $end
$scope module BUFF6 $end
$var wire 1 / a $end
$var reg 1 H errorsignal_a $end
$var reg 1 5 q $end
$var integer 32 I cell_state [31:0] $end
$var real 1 J ct_state0_a_a $end
$var real 1 K delay_state0_a_q $end
$var integer 32 L outfile [31:0] $end
$upscope $end
$scope module BUFF7 $end
$var wire 1 5 a $end
$var reg 1 M errorsignal_a $end
$var reg 1 4 q $end
$var integer 32 N cell_state [31:0] $end
$var real 1 O ct_state0_a_a $end
$var real 1 P delay_state0_a_q $end
$var integer 32 Q outfile [31:0] $end
$upscope $end
$scope module BUFF9 $end
$var wire 1 . a $end
$var reg 1 R errorsignal_a $end
$var reg 1 3 q $end
$var integer 32 S cell_state [31:0] $end
$var real 1 T ct_state0_a_a $end
$var real 1 U delay_state0_a_q $end
$var integer 32 V outfile [31:0] $end
$upscope $end
$scope module DFF4 $end
$var wire 1 % a $end
$var wire 1 * clk $end
$var reg 1 W errorsignal_a $end
$var reg 1 X errorsignal_clk $end
$var reg 1 2 q $end
$var integer 32 Y cell_state [31:0] $end
$var real 1 Z ct_state0_clk_a $end
$var real 1 [ delay_state1_clk_q $end
$var integer 32 \ outfile [31:0] $end
$upscope $end
$scope module DFF8 $end
$var wire 1 4 a $end
$var wire 1 ) clk $end
$var reg 1 ] errorsignal_a $end
$var reg 1 ^ errorsignal_clk $end
$var reg 1 1 q $end
$var integer 32 _ cell_state [31:0] $end
$var real 1 ` ct_state0_clk_a $end
$var real 1 a delay_state1_clk_q $end
$var integer 32 b outfile [31:0] $end
$upscope $end
$scope module HalfAdder13 $end
$var wire 1 8 a $end
$var wire 1 6 b $end
$var wire 1 ! s $end
$var wire 1 ( clk $end
$var wire 1 0 c $end
$var wire 1 c _SPLIT3_q2 $end
$var wire 1 d _SPLIT3_q1 $end
$var wire 1 e _SPLIT2_q2 $end
$var wire 1 f _SPLIT2_q1 $end
$var wire 1 g _SPLIT1_q2 $end
$var wire 1 h _SPLIT1_q1 $end
$scope module AND4 $end
$var wire 1 h clk $end
$var wire 1 d b $end
$var wire 1 f a $end
$var reg 1 i errorsignal_a $end
$var reg 1 j errorsignal_b $end
$var reg 1 k errorsignal_clk $end
$var reg 1 0 q $end
$var integer 32 l cell_state [31:0] $end
$var real 1 m ct_state0_clk_a $end
$var real 1 n ct_state0_clk_b $end
$var real 1 o ct_state1_clk_a $end
$var real 1 p ct_state1_clk_b $end
$var real 1 q ct_state2_clk_a $end
$var real 1 r ct_state2_clk_b $end
$var real 1 s ct_state3_clk_a $end
$var real 1 t ct_state3_clk_b $end
$var real 1 u delay_state3_clk_q $end
$var integer 32 v outfile [31:0] $end
$upscope $end
$scope module SPLIT1 $end
$var wire 1 ( a $end
$var reg 1 w errorsignal_a $end
$var reg 1 h q0 $end
$var reg 1 g q1 $end
$var integer 32 x cell_state [31:0] $end
$var real 1 y ct_state0_a_a $end
$var real 1 z delay_state0_a_q0 $end
$var real 1 { delay_state0_a_q1 $end
$var integer 32 | outfile [31:0] $end
$upscope $end
$scope module SPLIT2 $end
$var wire 1 8 a $end
$var reg 1 } errorsignal_a $end
$var reg 1 f q0 $end
$var reg 1 e q1 $end
$var integer 32 ~ cell_state [31:0] $end
$var real 1 !" ct_state0_a_a $end
$var real 1 "" delay_state0_a_q0 $end
$var real 1 #" delay_state0_a_q1 $end
$var integer 32 $" outfile [31:0] $end
$upscope $end
$scope module SPLIT3 $end
$var wire 1 6 a $end
$var reg 1 %" errorsignal_a $end
$var reg 1 d q0 $end
$var reg 1 c q1 $end
$var integer 32 &" cell_state [31:0] $end
$var real 1 '" ct_state0_a_a $end
$var real 1 (" delay_state0_a_q0 $end
$var real 1 )" delay_state0_a_q1 $end
$var integer 32 *" outfile [31:0] $end
$upscope $end
$scope module XOR5 $end
$var wire 1 e a $end
$var wire 1 c b $end
$var wire 1 g clk $end
$var reg 1 +" errorsignal_a $end
$var reg 1 ," errorsignal_b $end
$var reg 1 -" errorsignal_clk $end
$var reg 1 ! q $end
$var integer 32 ." cell_state [31:0] $end
$var real 1 /" ct_state0_a_clk $end
$var real 1 0" ct_state0_b_clk $end
$var real 1 1" ct_state1_a_b $end
$var real 1 2" ct_state1_a_clk $end
$var real 1 3" ct_state1_b_b $end
$var real 1 4" ct_state1_clk_b $end
$var real 1 5" ct_state2_a_a $end
$var real 1 6" ct_state2_b_a $end
$var real 1 7" ct_state2_b_clk $end
$var real 1 8" ct_state2_clk_a $end
$var real 1 9" delay_state1_clk_q $end
$var real 1 :" delay_state2_clk_q $end
$var integer 32 ;" outfile [31:0] $end
$upscope $end
$upscope $end
$scope module HalfAdder3 $end
$var wire 1 # a $end
$var wire 1 $ b $end
$var wire 1 . s $end
$var wire 1 , clk $end
$var wire 1 / c $end
$var wire 1 <" _SPLIT3_q2 $end
$var wire 1 =" _SPLIT3_q1 $end
$var wire 1 >" _SPLIT2_q2 $end
$var wire 1 ?" _SPLIT2_q1 $end
$var wire 1 @" _SPLIT1_q2 $end
$var wire 1 A" _SPLIT1_q1 $end
$scope module AND4 $end
$var wire 1 A" clk $end
$var wire 1 =" b $end
$var wire 1 ?" a $end
$var reg 1 B" errorsignal_a $end
$var reg 1 C" errorsignal_b $end
$var reg 1 D" errorsignal_clk $end
$var reg 1 / q $end
$var integer 32 E" cell_state [31:0] $end
$var real 1 F" ct_state0_clk_a $end
$var real 1 G" ct_state0_clk_b $end
$var real 1 H" ct_state1_clk_a $end
$var real 1 I" ct_state1_clk_b $end
$var real 1 J" ct_state2_clk_a $end
$var real 1 K" ct_state2_clk_b $end
$var real 1 L" ct_state3_clk_a $end
$var real 1 M" ct_state3_clk_b $end
$var real 1 N" delay_state3_clk_q $end
$var integer 32 O" outfile [31:0] $end
$upscope $end
$scope module SPLIT1 $end
$var wire 1 , a $end
$var reg 1 P" errorsignal_a $end
$var reg 1 A" q0 $end
$var reg 1 @" q1 $end
$var integer 32 Q" cell_state [31:0] $end
$var real 1 R" ct_state0_a_a $end
$var real 1 S" delay_state0_a_q0 $end
$var real 1 T" delay_state0_a_q1 $end
$var integer 32 U" outfile [31:0] $end
$upscope $end
$scope module SPLIT2 $end
$var wire 1 # a $end
$var reg 1 V" errorsignal_a $end
$var reg 1 ?" q0 $end
$var reg 1 >" q1 $end
$var integer 32 W" cell_state [31:0] $end
$var real 1 X" ct_state0_a_a $end
$var real 1 Y" delay_state0_a_q0 $end
$var real 1 Z" delay_state0_a_q1 $end
$var integer 32 [" outfile [31:0] $end
$upscope $end
$scope module SPLIT3 $end
$var wire 1 $ a $end
$var reg 1 \" errorsignal_a $end
$var reg 1 =" q0 $end
$var reg 1 <" q1 $end
$var integer 32 ]" cell_state [31:0] $end
$var real 1 ^" ct_state0_a_a $end
$var real 1 _" delay_state0_a_q0 $end
$var real 1 `" delay_state0_a_q1 $end
$var integer 32 a" outfile [31:0] $end
$upscope $end
$scope module XOR5 $end
$var wire 1 >" a $end
$var wire 1 <" b $end
$var wire 1 @" clk $end
$var reg 1 b" errorsignal_a $end
$var reg 1 c" errorsignal_b $end
$var reg 1 d" errorsignal_clk $end
$var reg 1 . q $end
$var integer 32 e" cell_state [31:0] $end
$var real 1 f" ct_state0_a_clk $end
$var real 1 g" ct_state0_b_clk $end
$var real 1 h" ct_state1_a_b $end
$var real 1 i" ct_state1_a_clk $end
$var real 1 j" ct_state1_b_b $end
$var real 1 k" ct_state1_clk_b $end
$var real 1 l" ct_state2_a_a $end
$var real 1 m" ct_state2_b_a $end
$var real 1 n" ct_state2_b_clk $end
$var real 1 o" ct_state2_clk_a $end
$var real 1 p" delay_state1_clk_q $end
$var real 1 q" delay_state2_clk_q $end
$var integer 32 r" outfile [31:0] $end
$upscope $end
$upscope $end
$scope module MERGE14 $end
$var wire 1 1 a $end
$var wire 1 0 b $end
$var reg 1 s" errorsignal_a $end
$var reg 1 t" errorsignal_b $end
$var reg 1 " q $end
$var integer 32 u" cell_state [31:0] $end
$var real 1 v" ct_state0_a_a $end
$var real 1 w" ct_state0_a_b $end
$var real 1 x" ct_state0_b_a $end
$var real 1 y" ct_state0_b_b $end
$var real 1 z" delay_state0_a_q $end
$var real 1 {" delay_state0_b_q $end
$var integer 32 |" outfile [31:0] $end
$upscope $end
$scope module SPLIT1 $end
$var wire 1 & a $end
$var reg 1 }" errorsignal_a $end
$var reg 1 - q0 $end
$var reg 1 , q1 $end
$var integer 32 ~" cell_state [31:0] $end
$var real 1 !# ct_state0_a_a $end
$var real 1 "# delay_state0_a_q0 $end
$var real 1 ## delay_state0_a_q1 $end
$var integer 32 $# outfile [31:0] $end
$upscope $end
$scope module SPLIT2 $end
$var wire 1 - a $end
$var reg 1 %# errorsignal_a $end
$var reg 1 + q0 $end
$var reg 1 * q1 $end
$var integer 32 &# cell_state [31:0] $end
$var real 1 '# ct_state0_a_a $end
$var real 1 (# delay_state0_a_q0 $end
$var real 1 )# delay_state0_a_q1 $end
$var integer 32 *# outfile [31:0] $end
$upscope $end
$scope module SPLIT5 $end
$var wire 1 + a $end
$var reg 1 +# errorsignal_a $end
$var reg 1 ) q0 $end
$var reg 1 ( q1 $end
$var integer 32 ,# cell_state [31:0] $end
$var real 1 -# ct_state0_a_a $end
$var real 1 .# delay_state0_a_q0 $end
$var real 1 /# delay_state0_a_q1 $end
$var integer 32 0# outfile [31:0] $end
$upscope $end
$upscope $end
$upscope $end
$enddefinitions $end
$comment Show the parameter values. $end
$dumpall
$end
#0
$dumpvars
bx 0#
r6.3 /#
r6.3 .#
r7 -#
b0 ,#
0+#
bx *#
r6.3 )#
r6.3 (#
r7 '#
b0 &#
0%#
bx $#
r6.3 ##
r6.3 "#
r7 !#
b0 ~"
0}"
bx |"
r9 {"
r9 z"
r10.2 y"
r2.2 x"
r2.3 w"
r10.2 v"
b0 u"
0t"
0s"
bx r"
r5 q"
r5 p"
r6.1 o"
r7 n"
r7.7 m"
r5.2 l"
r5.9 k"
r5.2 j"
r7.3 i"
r8 h"
r0.4 g"
r0.5 f"
b0 e"
0d"
0c"
0b"
bx a"
r6.3 `"
r6.3 _"
r7 ^"
b0 ]"
0\"
bx ["
r6.3 Z"
r6.3 Y"
r7 X"
b0 W"
0V"
bx U"
r6.3 T"
r6.3 S"
r7 R"
b0 Q"
0P"
bx O"
r5 N"
r0.7 M"
r0.7 L"
r1.6 K"
r1 J"
r1 I"
r1.6 H"
r1.2 G"
r1.2 F"
b0 E"
0D"
0C"
0B"
0A"
0@"
0?"
0>"
0="
0<"
bx ;"
r5 :"
r5 9"
r6.1 8"
r7 7"
r7.7 6"
r5.2 5"
r5.9 4"
r5.2 3"
r7.3 2"
r8 1"
r0.4 0"
r0.5 /"
b0 ."
0-"
0,"
0+"
bx *"
r6.3 )"
r6.3 ("
r7 '"
b0 &"
0%"
bx $"
r6.3 #"
r6.3 ""
r7 !"
b0 ~
0}
bx |
r6.3 {
r6.3 z
r7 y
b0 x
0w
bx v
r5 u
r0.7 t
r0.7 s
r1.6 r
r1 q
r1 p
r1.6 o
r1.2 n
r1.2 m
b0 l
0k
0j
0i
0h
0g
0f
0e
0d
0c
bx b
r6.3 a
r0.4 `
b0 _
0^
0]
bx \
r6.3 [
r0.4 Z
b0 Y
0X
0W
bx V
r6.3 U
r5.2 T
b0 S
0R
bx Q
r6.3 P
r5.2 O
b0 N
0M
bx L
r6.3 K
r5.2 J
b0 I
0H
bx G
r6.3 F
r5.2 E
b0 D
0C
bx B
r6.3 A
r5.2 @
b0 ?
0>
bx =
r6.3 <
r5.2 ;
b0 :
09
08
07
06
05
04
03
02
01
00
0/
0.
0-
0,
0+
0*
0)
0(
bx '
0&
0%
0$
0#
0"
0!
$end
#500
b0 '
#1000
1}"
1&
#1063
1P"
1%#
1,
1-
#1070
0}"
#1126
1C"
1B"
1W
1+#
1@"
1A"
1*
1+
#1130
0W
#1133
0P"
0%#
#1138
0C"
0B"
#1189
1w
1]
1(
1)
#1193
0]
#1196
0+#
#1252
1j
1i
1g
1h
#1259
0w
#1264
0j
0i
#1500
1V"
1#
b1 '
#1563
1d"
b1 e"
b1 E"
1>"
1?"
#1568
0d"
#1570
0V"
#2000
1}"
0&
#2063
1P"
1%#
0,
0-
#2070
0}"
#2126
1c"
b0 e"
1C"
1B"
b0 E"
1W
1+#
0@"
0A"
0*
0+
#2130
0W
#2133
0P"
0%#
#2136
0C"
#2142
0B"
#2176
1R
1.
#2185
0c"
#2189
1w
1]
0(
0)
#2193
0]
#2196
0+#
#2228
0R
#2239
19
13
#2252
1j
1i
0g
0h
#2259
0w
#2264
0j
0i
#2291
09
#2302
1}
18
#2365
1-"
b1 ."
b1 l
1e
1f
#2370
0-"
#2372
0}
#2500
1\"
1$
b10 '
#2563
1d"
b10 e"
b10 E"
1<"
1="
#2567
0d"
#2570
0\"
#3000
1}"
1&
#3063
1P"
1%#
1,
1-
#3070
0}"
#3126
1b"
b0 e"
1C"
1B"
b0 E"
1W
1+#
1@"
1A"
1*
1+
#3130
0W
#3133
0P"
0%#
#3136
0B"
#3142
0C"
#3176
1R
0.
#3187
0b"
#3189
1w
1]
1(
1)
#3193
0]
#3196
0+#
#3228
0R
#3239
19
03
#3252
1,"
b0 ."
1j
1i
b0 l
1g
1h
#3259
0w
#3262
0j
#3268
0i
#3291
09
#3302
1}
1!
08
#3311
0,"
#3365
1-"
b1 ."
b1 l
0e
0f
#3370
0-"
#3372
0}
#3500
1\"
1V"
0$
0#
b11 '
#3563
1c"
1d"
b0 e"
b11 E"
0<"
0="
0>"
0?"
#3568
0d"
#3570
0\"
0V"
#3615
0c"
#4000
1}"
0&
#4063
1P"
1%#
0,
0-
#4070
0}"
#4126
1C"
1B"
b0 E"
1W
1+#
0@"
0A"
0*
0+
#4130
0W
#4133
0C"
0B"
0P"
0%#
#4176
1H
1/
#4189
1w
1]
0(
0)
#4193
0]
#4196
0+#
#4228
0H
#4239
1M
15
#4252
1,"
b0 ."
1j
1i
b0 l
0g
0h
#4259
0w
#4262
0j
#4268
0i
#4291
0M
#4302
b1 _
0!
14
#4311
0,"
#4500
b1 Y
1%
b100 '
#5000
1}"
1&
#5063
1P"
1%#
1,
1-
#5070
0}"
#5126
1C"
1B"
b0 Y
1+#
1@"
1A"
1*
1+
#5133
0P"
0%#
#5138
0C"
0B"
#5189
1>
1w
b0 _
12
1(
1)
#5196
0+#
#5241
0>
#5252
1C
1j
1i
1t"
1s"
17
1g
1h
11
#5259
0w
#5264
0j
0i
#5275
0t"
#5304
0C
#5315
1%"
16
#5342
1"
#5354
0s"
#5378
1-"
b10 ."
b10 l
1c
1d
#5382
0-"
#5385
0%"
#5500
b1 Y
1V"
0%
1#
b101 '
#5563
1d"
b1 e"
b1 E"
1>"
1?"
#5568
0d"
#5570
0V"
#6000
1}"
0&
#6063
1P"
1%#
0,
0-
#6070
0}"
#6126
1c"
b0 e"
1C"
1B"
b0 E"
b0 Y
1+#
0@"
0A"
0*
0+
#6133
0P"
0%#
#6136
0C"
#6142
0B"
#6176
1R
1.
#6185
0c"
#6189
1>
1w
1]
02
0(
0)
#6193
0]
#6196
0+#
#6228
0R
#6239
19
13
#6241
0>
#6252
1C
1+"
b0 ."
1j
1i
b0 l
07
0g
0h
#6259
0w
#6262
0i
#6268
0j
#6291
09
#6302
1}
1!
18
#6304
0C
#6313
0+"
#6315
1%"
06
#6365
1-"
b1 ."
b1 l
1e
1f
#6370
0-"
#6372
0}
#6378
1,"
b0 ."
b11 l
0c
0d
#6385
0%"
#6430
0,"
#6500
b1 Y
1\"
1%
1$
b110 '
#6563
1d"
b10 e"
b10 E"
1<"
1="
#6567
0d"
#6570
0\"
#7000
1}"
1&
#7063
1P"
1%#
1,
1-
#7070
0}"
#7126
1b"
b0 e"
1C"
1B"
b0 E"
b0 Y
1+#
1@"
1A"
1*
1+
#7133
0P"
0%#
#7136
0B"
#7142
0C"
#7176
1R
0.
#7187
0b"
#7189
1>
1w
1]
12
1(
1)
#7193
0]
#7196
0+#
#7228
0R
#7239
19
03
#7241
0>
#7252
1C
1j
1i
b0 l
17
1g
1h
#7259
0j
0i
0w
#7291
09
#7302
1t"
1s"
1}
10
08
#7304
0C
#7315
1%"
16
#7324
0s"
#7365
1-"
b1 ."
b1 l
0e
0f
#7370
0-"
#7372
0}
#7378
1,"
b0 ."
b11 l
1c
1d
#7385
0%"
#7392
0"
#7404
0t"
#7430
0,"
#7500
b1 Y
1\"
1V"
0%
0$
0#
b111 '
#7563
1c"
1d"
b0 e"
b11 E"
0<"
0="
0>"
0?"
#7568
0d"
#7570
0\"
0V"
#7615
0c"
#8000
1}"
0&
#8063
1P"
1%#
0,
0-
#8070
0}"
#8126
1C"
1B"
b0 E"
b0 Y
1+#
0@"
0A"
0*
0+
#8133
0C"
0B"
0P"
0%#
#8176
1H
0/
#8189
1>
1w
1]
02
0(
0)
#8193
0]
#8196
0+#
#8228
0H
#8239
1M
05
#8241
0>
#8252
1C
1j
1i
b0 l
07
0g
0h
#8259
0j
0i
0w
#8291
0M
#8302
1t"
1s"
b1 _
00
04
#8304
0C
#8315
1%"
06
#8324
0s"
#8378
1-"
b10 ."
b10 l
0c
0d
#8382
0-"
#8385
0%"
#8392
1"
#8404
0t"
#8500
b1000 '
#9000
1}"
1&
#9063
1P"
1%#
1,
1-
#9070
0}"
#9126
1C"
1B"
1W
1+#
1@"
1A"
1*
1+
#9130
0W
#9133
0P"
0%#
#9138
0C"
0B"
#9189
1w
b0 _
1(
1)
#9196
0+#
#9252
1+"
b0 ."
1j
1i
b0 l
1t"
1s"
1g
1h
01
#9259
0w
#9262
0i
#9268
0j
#9275
0t"
#9302
0!
#9313
0+"
#9342
0"
#9354
0s"
#10000
1}"
0&
#10063
1P"
1%#
0,
0-
#10070
0}"
#10126
1C"
1B"
1W
1+#
0@"
0A"
0*
0+
#10130
0W
#10133
0P"
0%#
#10138
0C"
0B"
#10189
1w
1]
0(
0)
#10193
0]
#10196
0+#
#10252
1j
1i
0g
0h
#10259
0w
#10264
0j
0i
